zone_id;fias_id
50;85
53;33
48;45
49;68
169;43
51;6
54;37
118;76
120;79
121;24
122;87
52;20
58;65
65;12
64;21
67;38
68;34
96;13
57;15
70;19
123;44
73;50
74;14
75;62
76;39
77;3
59;63
79;70
80;18
83;41
46;11
84;46
86;80
88;72
89;57
90;52
91;75
93;36
92;16
94;25
95;42
119;8
98;73
82;61
62;23
114;2
116;54
81;49
87;56
85;83
60;29
97;9
108;28
128;205183
127;64
103;77
124;53
117;30
69;31
78;81
45;69
99;88
100;74
102;89
106;86
104;60
61;82
126;26
146;203915
105;32
107;4
109;48
112;78
110;35
111;40
113;90
66;51
115;27
71;66
72;7
56;84
63;58
55;17
47;10
101;5
125;71
